<?xml version="1.0" standalone="no"?>
<!DOCTYPE svg PUBLIC "-//W3C//DTD SVG 20010904//EN"
 "http://www.w3.org/TR/2001/REC-SVG-20010904/DTD/svg10.dtd">
<svg version="1.0" xmlns="http://www.w3.org/2000/svg"
 width="994.000000pt" height="448.000000pt" viewBox="0 0 994.000000 448.000000"
 preserveAspectRatio="xMidYMid meet">

<g transform="translate(0.000000,448.000000) scale(0.100000,-0.100000)"
fill="#ffffff" stroke="none">
<path d="M1434 4363 c-3 -10 -16 -40 -29 -68 -13 -27 -36 -79 -51 -115 -15
-36 -40 -94 -56 -130 -16 -36 -36 -78 -43 -95 -7 -16 -27 -59 -43 -95 -28 -59
-51 -110 -93 -207 -8 -18 -17 -33 -21 -33 -5 0 -8 -9 -8 -19 0 -11 -7 -32 -15
-48 -23 -46 -72 -156 -80 -183 -4 -14 -16 -37 -26 -51 -10 -14 -16 -29 -13
-32 4 -3 -3 -21 -14 -39 -11 -18 -36 -71 -57 -118 -20 -47 -54 -121 -75 -165
-21 -44 -41 -90 -45 -103 -4 -12 -17 -42 -31 -65 -13 -23 -24 -52 -24 -64 0
-13 -3 -23 -7 -23 -11 0 -43 -59 -43 -79 0 -9 -4 -21 -9 -27 -5 -5 -28 -54
-51 -109 -23 -55 -50 -116 -60 -135 -10 -19 -25 -51 -33 -70 -57 -125 -75
-168 -82 -190 -4 -14 -13 -32 -20 -40 -8 -8 -20 -34 -28 -58 l-15 -43 82 79
c44 44 98 95 120 113 21 19 46 41 55 49 49 45 171 140 180 140 6 0 11 4 11 8
0 4 12 15 28 24 15 9 36 25 47 35 11 11 62 48 113 82 50 35 92 70 92 77 0 8 3
14 8 14 4 0 13 15 21 33 37 89 75 176 91 212 11 22 46 103 80 180 33 77 67
154 74 170 7 17 21 50 31 75 10 25 21 54 26 65 4 11 11 35 15 54 l6 35 14 -25
c7 -13 13 -30 14 -38 0 -12 20 -62 75 -186 7 -16 30 -68 50 -115 57 -135 65
-149 84 -143 35 11 80 34 86 43 3 6 15 10 26 10 10 0 19 5 19 10 0 6 8 10 18
10 10 0 22 4 28 8 5 5 50 26 101 47 74 31 90 42 84 54 -5 9 -19 39 -31 66 -38
86 -57 127 -99 217 -23 48 -41 90 -41 93 0 5 -45 106 -80 180 -38 79 -90 203
-90 213 0 5 -7 15 -15 22 -8 7 -15 19 -15 27 0 7 -22 60 -49 116 -26 56 -52
113 -56 127 -4 14 -16 37 -27 52 -10 15 -17 30 -16 35 3 12 -66 153 -75 153
-4 0 -10 -8 -13 -17z"/>
<path d="M8223 4332 c-12 -26 -29 -65 -38 -87 -10 -22 -33 -71 -51 -109 -19
-39 -34 -77 -34 -87 0 -9 -7 -22 -15 -29 -8 -7 -15 -16 -15 -21 0 -5 -16 -43
-35 -85 -19 -41 -35 -80 -35 -84 0 -5 -9 -24 -20 -42 -11 -18 -20 -41 -20 -50
0 -9 -6 -23 -13 -30 -6 -7 -23 -40 -36 -73 -21 -52 -68 -157 -116 -260 -32
-67 -75 -167 -75 -172 0 -3 -12 -31 -26 -62 -40 -85 -70 -150 -99 -216 -33
-76 -51 -114 -114 -247 -28 -58 -51 -110 -51 -115 0 -4 -9 -26 -19 -48 -11
-22 -26 -56 -35 -75 -8 -19 -28 -65 -45 -103 -17 -37 -31 -69 -30 -72 0 -3
-11 -27 -24 -53 -26 -52 -75 -157 -100 -214 -21 -48 -4 -41 43 17 19 24 38 44
42 44 5 1 27 20 50 42 24 23 81 74 128 113 47 39 91 77 99 84 8 7 26 21 40 30
30 20 57 41 81 63 9 8 23 19 31 22 8 4 55 36 104 71 91 64 107 84 149 186 10
25 28 65 39 90 11 25 24 54 28 65 4 11 25 58 47 105 21 47 58 130 82 185 24
55 46 105 50 110 3 6 17 45 30 87 23 72 40 99 40 63 0 -8 6 -29 14 -47 8 -18
28 -67 46 -108 17 -41 39 -93 50 -115 10 -22 35 -79 56 -127 20 -49 39 -88 42
-88 2 0 38 17 80 38 43 21 127 60 189 87 92 39 111 51 104 64 -16 30 -68 146
-81 181 -8 19 -20 44 -27 55 -7 11 -13 27 -13 36 0 9 -9 28 -20 42 -11 14 -20
31 -20 38 0 6 -12 37 -26 68 -35 75 -72 157 -94 206 -10 22 -32 70 -49 107
-17 37 -31 74 -31 82 0 9 -3 16 -7 16 -5 0 -16 21 -27 48 -10 26 -29 70 -41
97 -13 28 -37 79 -53 115 -16 36 -45 98 -63 138 -18 39 -35 72 -38 72 -3 0
-16 -22 -28 -48z"/>
<path d="M3190 2885 l0 -1385 945 0 944 0 3 213 c2 116 2 215 0 220 -2 4 -318
7 -703 7 l-699 0 0 1165 0 1165 -245 0 -245 0 0 -1385z"/>
<path d="M5050 4045 l0 -225 385 0 385 0 0 -1158 c0 -637 2 -1161 4 -1163 2
-2 115 -3 250 -1 l246 3 0 1159 0 1160 390 0 390 0 0 225 0 225 -1025 0 -1025
0 0 -225z"/>
<path d="M2395 3109 c-60 -22 -128 -45 -150 -53 -37 -12 -99 -36 -150 -56 -11
-4 -54 -23 -95 -42 -41 -19 -91 -41 -110 -48 -61 -24 -358 -178 -485 -252
-115 -67 -141 -83 -234 -145 -51 -35 -97 -63 -101 -63 -3 0 -25 -16 -47 -35
-23 -19 -44 -35 -47 -35 -3 0 -14 -7 -23 -16 -10 -9 -53 -42 -95 -74 -210
-158 -437 -373 -576 -546 -81 -101 -104 -135 -141 -207 l-19 -37 301 2 302 3
31 60 c17 33 40 74 50 91 65 108 103 167 146 226 26 37 48 72 48 77 0 5 3 11
8 13 4 2 43 48 87 103 44 55 94 115 110 134 40 46 242 247 291 291 74 66 269
222 284 228 8 3 35 22 60 42 25 21 68 50 95 65 28 16 68 40 90 55 22 15 47 30
55 33 8 4 38 21 65 37 54 33 228 118 285 141 56 22 106 48 90 48 -8 -1 -64
-18 -125 -40z"/>
<path d="M9308 3143 c6 -2 18 -2 25 0 6 3 1 5 -13 5 -14 0 -19 -2 -12 -5z"/>
<path d="M9185 3108 c-33 -11 -69 -24 -80 -29 -11 -5 -69 -27 -130 -49 -60
-22 -114 -45 -119 -50 -6 -6 -16 -10 -22 -10 -22 0 -294 -129 -449 -213 -222
-120 -268 -148 -428 -254 -60 -40 -112 -73 -117 -73 -4 0 -10 -3 -12 -8 -1 -4
-32 -29 -68 -54 -70 -51 -156 -117 -174 -133 -6 -5 -51 -44 -101 -85 -105 -88
-295 -274 -295 -289 0 -6 -6 -11 -14 -11 -8 0 -17 -9 -21 -19 -3 -11 -17 -26
-30 -35 -14 -9 -25 -23 -25 -30 0 -8 -3 -16 -7 -18 -12 -5 -93 -105 -93 -114
0 -4 -6 -15 -13 -23 -8 -9 -26 -37 -41 -63 l-27 -48 303 0 303 0 11 23 c6 12
21 42 33 65 13 24 40 73 62 108 21 35 39 68 39 72 0 5 11 19 25 32 14 13 25
28 25 33 0 5 14 26 30 47 17 21 30 42 30 48 0 6 3 12 8 14 4 2 34 38 67 82 33
43 70 88 82 100 12 11 23 25 23 29 0 8 57 69 210 225 75 77 317 287 368 320
15 9 55 38 89 64 34 27 65 48 68 48 3 0 36 20 73 45 37 25 72 45 79 45 7 0 13
4 13 9 0 5 8 11 18 15 9 3 53 26 97 51 44 25 96 53 115 61 19 8 63 28 96 45
34 16 66 29 72 29 6 0 14 5 17 10 9 15 -24 11 -90 -12z"/>
<path d="M2090 2839 c-33 -18 -170 -109 -180 -119 -3 -3 -18 -12 -33 -20 -16
-8 -40 -25 -53 -37 -14 -13 -29 -23 -34 -23 -20 0 -20 -22 -1 -49 12 -16 21
-35 21 -43 0 -7 11 -35 25 -63 13 -27 25 -56 25 -62 0 -7 5 -13 10 -13 6 0 10
-9 10 -19 0 -11 7 -32 15 -48 35 -68 65 -138 65 -150 0 -7 5 -13 10 -13 6 0
10 -7 10 -16 0 -8 16 -49 35 -91 19 -42 35 -81 35 -87 0 -6 12 -29 26 -49 14
-21 23 -41 20 -44 -3 -3 1 -18 8 -32 22 -43 56 -118 56 -124 0 -5 66 -151 93
-207 l13 -25 237 -3 c130 -1 237 0 237 3 0 6 -86 209 -104 245 -17 34 -47 100
-86 190 -17 41 -49 111 -69 155 -21 44 -52 114 -70 155 -18 41 -42 95 -54 119
-12 24 -22 49 -23 55 -5 22 -72 168 -83 179 -6 6 -11 17 -11 24 0 8 -15 46
-34 86 -18 40 -41 89 -51 110 -9 20 -20 37 -24 36 -3 0 -22 -9 -41 -20z"/>
<path d="M8888 2835 c-20 -14 -40 -25 -43 -25 -9 0 -129 -83 -133 -92 -2 -5
-10 -8 -18 -8 -8 0 -14 -3 -14 -8 0 -4 -8 -12 -18 -17 -54 -30 -82 -51 -82
-64 0 -7 11 -35 25 -62 13 -27 23 -49 21 -49 -2 0 9 -26 25 -57 16 -31 29 -65
29 -75 0 -10 4 -18 9 -18 5 0 15 -17 21 -37 7 -21 25 -65 41 -99 16 -33 29
-64 29 -69 0 -5 10 -29 21 -54 22 -46 48 -104 88 -193 11 -26 21 -51 21 -54 0
-4 11 -30 24 -58 13 -28 35 -76 49 -106 14 -30 37 -80 51 -111 14 -31 26 -61
26 -67 0 -8 71 -12 240 -14 l241 -3 -7 30 c-4 17 -15 46 -25 65 -10 19 -28 58
-40 85 -12 28 -34 78 -50 111 -16 34 -29 67 -29 74 0 7 -8 24 -18 38 -10 15
-28 54 -41 87 -13 33 -39 92 -57 130 -18 39 -41 90 -52 115 -26 58 -67 151
-99 220 -36 78 -59 131 -71 160 -6 14 -28 63 -50 110 -21 47 -44 97 -50 113
-14 33 -18 33 -64 2z"/>
<path d="M8580 1159 c0 -5 -14 -40 -31 -77 -61 -131 -69 -148 -69 -160 0 -7
-4 -12 -10 -12 -5 0 -10 -7 -10 -15 0 -8 -4 -23 -9 -33 -5 -9 -21 -44 -36 -77
-15 -33 -37 -83 -51 -110 -13 -28 -24 -54 -24 -58 0 -4 -23 -56 -51 -115 -79
-168 -89 -189 -89 -196 0 -3 31 -6 70 -6 l69 0 32 68 c17 37 35 76 39 87 5 11
25 58 45 105 20 47 43 99 50 115 7 17 27 60 44 97 17 37 31 74 31 82 0 9 5 16
10 16 6 0 10 -6 10 -13 0 -13 23 -67 60 -140 11 -22 20 -44 20 -50 0 -7 10
-32 22 -57 31 -64 53 -115 88 -200 46 -111 38 -105 118 -108 l70 -3 -15 43
c-8 23 -20 54 -28 68 -7 14 -28 59 -45 100 -18 41 -39 89 -48 105 -8 17 -19
37 -23 45 -32 70 -49 108 -49 114 0 7 -19 51 -75 171 -29 63 -68 150 -86 193
-14 31 -29 43 -29 21z"/>
<path d="M1860 1131 c-25 -9 -46 -19 -48 -23 -2 -5 -10 -8 -18 -8 -18 0 -110
-64 -140 -99 -76 -84 -109 -189 -101 -318 6 -106 45 -189 119 -258 107 -100
193 -130 349 -123 81 4 103 9 163 38 99 48 183 135 219 228 57 150 28 308 -80
431 -50 56 -85 78 -216 135 -49 21 -185 20 -247 -3z m267 -154 c53 -27 113
-82 113 -104 0 -7 4 -13 10 -13 14 0 32 -76 35 -144 4 -78 -33 -161 -90 -208
-76 -62 -104 -72 -205 -72 -85 1 -100 4 -141 28 -89 51 -135 113 -149 201 -23
142 46 272 172 324 75 30 183 25 255 -12z"/>
<path d="M4625 1123 c-38 -14 -72 -28 -75 -32 -3 -3 -17 -12 -31 -19 -24 -13
-49 -36 -99 -90 -12 -13 -35 -49 -51 -80 -29 -54 -30 -63 -31 -182 0 -121 1
-127 32 -192 51 -106 150 -188 263 -217 58 -14 201 -14 268 0 48 10 139 45
139 53 0 2 -14 31 -30 64 l-30 61 -67 -25 c-164 -59 -319 -10 -404 129 -28 46
-31 58 -31 133 0 63 4 87 16 99 9 9 16 22 16 29 0 21 70 96 109 115 20 11 63
27 94 36 50 14 68 15 130 5 39 -7 79 -17 89 -23 9 -6 18 -9 20 -7 14 22 59
113 56 114 -107 61 -261 72 -383 29z"/>
<path d="M90 721 l0 -421 75 0 75 0 0 144 0 144 103 4 c60 3 124 12 154 23
174 59 221 319 82 446 -65 59 -119 72 -316 77 l-173 4 0 -421z m350 269 c33
-17 44 -30 64 -67 21 -41 20 -73 -1 -114 -35 -65 -86 -89 -189 -89 l-74 0 0
146 0 147 88 -5 c49 -3 99 -11 112 -18z"/>
<path d="M820 720 l0 -420 75 0 75 0 0 145 0 145 69 0 69 0 23 -37 c13 -21 31
-46 40 -57 10 -10 23 -31 29 -47 7 -16 15 -29 19 -29 4 0 15 -16 25 -35 11
-19 22 -35 26 -35 5 0 11 -11 14 -25 6 -24 9 -25 96 -25 50 0 90 3 90 6 0 3
-13 25 -30 49 -16 24 -30 48 -30 53 0 6 -7 12 -15 16 -8 3 -15 12 -15 19 0 8
-9 22 -20 32 -11 10 -20 21 -20 26 0 4 -16 30 -35 59 -19 29 -35 56 -35 61 0
5 15 22 33 39 59 53 82 113 81 211 0 79 -2 90 -32 135 -68 107 -146 134 -387
134 l-145 0 0 -420z m369 253 c44 -31 51 -46 51 -116 0 -42 -5 -54 -34 -83
-19 -19 -41 -34 -50 -34 -9 0 -16 -4 -16 -10 0 -6 -35 -10 -85 -10 l-85 0 0
146 0 147 90 -6 c77 -5 95 -10 129 -34z"/>
<path d="M2610 720 l0 -420 143 0 c173 0 253 12 333 50 89 43 146 101 201 203
23 42 25 240 4 307 -25 77 -116 191 -165 206 -12 3 -28 12 -36 18 -45 35 -171
56 -342 56 l-138 0 0 -420z m414 245 c107 -54 156 -165 134 -300 -17 -108 -59
-159 -165 -202 -44 -18 -76 -23 -145 -23 l-88 0 0 281 0 281 103 -4 c90 -3
109 -7 161 -33z"/>
<path d="M3480 843 l0 -298 35 -70 c28 -56 46 -78 90 -110 81 -58 114 -67 230
-63 147 6 216 44 293 161 l27 41 3 318 4 318 -76 0 -75 0 -3 -306 -3 -306 -47
-43 c-36 -32 -59 -44 -93 -50 -98 -14 -177 21 -216 96 -17 35 -19 61 -19 324
l0 285 -75 0 -75 0 0 -297z"/>
<path d="M5130 1070 l0 -70 105 0 105 0 0 -350 0 -350 70 0 70 0 0 350 0 350
110 0 110 0 0 70 0 70 -285 0 -285 0 0 -70z"/>
<path d="M5890 720 l0 -420 70 0 70 0 0 420 0 420 -70 0 -70 0 0 -420z"/>
<path d="M6160 1132 c0 -4 4 -12 9 -17 12 -14 81 -176 81 -192 0 -7 4 -13 8
-13 11 0 32 -45 32 -66 0 -9 8 -28 19 -42 10 -15 22 -38 26 -52 4 -13 28 -67
52 -120 24 -52 52 -113 62 -135 10 -22 35 -76 55 -120 20 -45 36 -86 36 -93 0
-24 18 -11 30 21 7 17 21 50 31 72 10 22 28 65 41 95 13 30 35 79 50 109 16
29 28 57 28 61 0 4 20 50 44 101 24 52 47 105 51 119 4 14 13 34 20 45 11 19
77 163 96 213 8 22 7 22 -66 22 -45 0 -75 -4 -75 -10 0 -10 -47 -123 -90 -215
-10 -22 -32 -74 -49 -115 -17 -41 -40 -93 -50 -115 -11 -22 -25 -57 -32 -78
-15 -44 -24 -47 -33 -9 -7 26 -65 168 -91 222 -6 14 -19 41 -28 60 -8 19 -27
60 -41 91 -14 31 -35 81 -46 112 l-21 57 -75 0 c-41 0 -74 -4 -74 -8z"/>
<path d="M7072 723 l3 -418 70 0 70 0 0 415 0 415 -73 3 -72 3 2 -418z"/>
<path d="M7450 720 l0 -420 143 0 c196 0 256 11 376 69 18 9 38 24 45 34 6 9
15 17 21 17 5 0 31 32 57 71 59 91 76 171 59 288 -21 142 -99 249 -225 306
-92 42 -171 55 -339 55 l-137 0 0 -420z m393 256 c66 -29 103 -60 124 -103 8
-18 19 -33 24 -33 5 0 9 -51 9 -114 0 -98 -3 -117 -20 -139 -11 -14 -20 -30
-20 -35 0 -18 -78 -73 -130 -93 -36 -14 -76 -19 -140 -19 l-90 0 0 280 0 280
95 0 c78 0 104 -4 148 -24z"/>
<path d="M9110 720 l0 -420 143 0 c78 0 171 5 207 10 69 11 208 72 217 96 3 8
10 14 17 14 15 1 69 76 95 133 17 38 21 65 21 156 0 138 -25 210 -98 287 -50
52 -131 104 -163 104 -11 0 -19 4 -19 8 0 15 -156 32 -288 32 l-132 0 0 -420z
m385 259 c74 -27 105 -56 146 -131 30 -55 34 -72 33 -133 0 -56 -6 -80 -28
-122 -57 -108 -146 -153 -300 -153 l-94 0 -1 280 -2 280 95 0 c72 0 109 -5
151 -21z"/>
</g>
</svg>
